<?xml version="1.0" encoding="UTF-8"?>
<svg width="103px" height="125px" viewBox="0 0 103 125" version="1.1" xmlns="http://www.w3.org/2000/svg" xmlns:xlink="http://www.w3.org/1999/xlink">
    <!-- Generator: Sketch 58 (84663) - https://sketch.com -->
    <title>vera</title>
    <desc>Created with Sketch.</desc>
    <g id="Page-1" stroke="none" stroke-width="1" fill="none" fill-rule="evenodd">
        <g id="Style-guide---vera.style" transform="translate(-1505.000000, -2763.000000)">
            <g id="ic2" transform="translate(1505.000000, 2763.000000)">
                <g id="vera">
                    <path d="M99.5147314,101.537444 C97.2818444,99.27484 94.2270028,98 91.0381141,98 C87.8492254,98 84.7943837,99.27484 82.5614968,101.537444 C80.2380666,103.776228 78.9496008,106.870205 79.0015099,110.085997 C79.0018306,114.916997 81.9374733,119.269614 86.433761,121.105642 C90.9300487,122.94167 96.0968622,121.897636 99.5147314,118.462431 C101.769865,116.254683 103.026799,113.231835 102.997746,110.085997 C103.060717,106.883229 101.802188,103.794352 99.5147314,101.537444 Z" id="Path" fill="#0C0C0C"></path>
                    <path d="M17.9695287,5.66344973 C16.9411014,3.31822936 15.0373126,1.49393624 12.6848835,0.599473099 C10.3324545,-0.294990044 7.72813684,-0.184812376 5.45567047,0.905310541 C0.716550668,3.23932596 -1.31628985,9.03947114 0.890866835,13.9297085 L47.9949182,119.314427 C49.4992857,122.768301 52.8431152,124.994656 56.5342491,125 C59.7900508,124.98676 62.8126231,123.266586 64.5443011,120.441404 C66.2759791,117.616221 66.4757011,114.079316 65.0735801,111.06833 L17.9695287,5.66344973 Z" id="Path" fill="#FF7060"></path>
                </g>
            </g>
        </g>
    </g>
</svg>